%YAML 1.1
%TAG !u! tag:unity3d.com,2011:
--- !u!114 &-8573905518313429154
MonoBehaviour:
  m_ObjectHideFlags: 0
  m_CorrespondingSourceObject: {fileID: 0}
  m_PrefabInstance: {fileID: 0}
  m_PrefabAsset: {fileID: 0}
  m_GameObject: {fileID: 6030332796725836435}
  m_Enabled: 1
  m_EditorHideFlags: 0
  m_Script: {fileID: 11500000, guid: b85e54e30bb74162b2d6bca9b68f5482, type: 3}
  m_Name: 
  m_EditorClassIdentifier: 
--- !u!114 &2712200527511254949
MonoBehaviour:
  m_ObjectHideFlags: 0
  m_CorrespondingSourceObject: {fileID: 0}
  m_PrefabInstance: {fileID: 0}
  m_PrefabAsset: {fileID: 0}
  m_GameObject: {fileID: 6030332796725836435}
  m_Enabled: 1
  m_EditorHideFlags: 0
  m_Script: {fileID: 11500000, guid: e9546a8975fe4783ac74e987ecca9635, type: 3}
  m_Name: 
  m_EditorClassIdentifier: 
--- !u!114 &7947448279611919399
MonoBehaviour:
  m_ObjectHideFlags: 0
  m_CorrespondingSourceObject: {fileID: 0}
  m_PrefabInstance: {fileID: 0}
  m_PrefabAsset: {fileID: 0}
  m_GameObject: {fileID: 6030332796725836435}
  m_Enabled: 1
  m_EditorHideFlags: 0
  m_Script: {fileID: 11500000, guid: 15d8103dbb8346ad8a6cf5bcf723c188, type: 3}
  m_Name: 
  m_EditorClassIdentifier: 
--- !u!114 &7176926493307957156
MonoBehaviour:
  m_ObjectHideFlags: 0
  m_CorrespondingSourceObject: {fileID: 0}
  m_PrefabInstance: {fileID: 0}
  m_PrefabAsset: {fileID: 0}
  m_GameObject: {fileID: 6030332796725836435}
  m_Enabled: 1
  m_EditorHideFlags: 0
  m_Script: {fileID: 11500000, guid: ca1e2ad530b03fb4183883166b256bf0, type: 3}
  m_Name: 
  m_EditorClassIdentifier: 
--- !u!1001 &2346910511208358810
PrefabInstance:
  m_ObjectHideFlags: 0
  serializedVersion: 2
  m_Modification:
    m_TransformParent: {fileID: 0}
    m_Modifications:
    - target: {fileID: -4216859302048453862, guid: 81d416e6df60a409883e36e737111e88, type: 3}
      propertyPath: m_RootOrder
      value: 0
      objectReference: {fileID: 0}
    - target: {fileID: -4216859302048453862, guid: 81d416e6df60a409883e36e737111e88, type: 3}
      propertyPath: m_LocalScale.x
      value: 10
      objectReference: {fileID: 0}
    - target: {fileID: -4216859302048453862, guid: 81d416e6df60a409883e36e737111e88, type: 3}
      propertyPath: m_LocalScale.y
      value: 10
      objectReference: {fileID: 0}
    - target: {fileID: -4216859302048453862, guid: 81d416e6df60a409883e36e737111e88, type: 3}
      propertyPath: m_LocalScale.z
      value: 10
      objectReference: {fileID: 0}
    - target: {fileID: -4216859302048453862, guid: 81d416e6df60a409883e36e737111e88, type: 3}
      propertyPath: m_LocalPosition.x
      value: 0
      objectReference: {fileID: 0}
    - target: {fileID: -4216859302048453862, guid: 81d416e6df60a409883e36e737111e88, type: 3}
      propertyPath: m_LocalPosition.y
      value: 0
      objectReference: {fileID: 0}
    - target: {fileID: -4216859302048453862, guid: 81d416e6df60a409883e36e737111e88, type: 3}
      propertyPath: m_LocalPosition.z
      value: 0
      objectReference: {fileID: 0}
    - target: {fileID: -4216859302048453862, guid: 81d416e6df60a409883e36e737111e88, type: 3}
      propertyPath: m_LocalRotation.w
      value: 0.7071068
      objectReference: {fileID: 0}
    - target: {fileID: -4216859302048453862, guid: 81d416e6df60a409883e36e737111e88, type: 3}
      propertyPath: m_LocalRotation.x
      value: -0.7071068
      objectReference: {fileID: 0}
    - target: {fileID: -4216859302048453862, guid: 81d416e6df60a409883e36e737111e88, type: 3}
      propertyPath: m_LocalRotation.y
      value: 0
      objectReference: {fileID: 0}
    - target: {fileID: -4216859302048453862, guid: 81d416e6df60a409883e36e737111e88, type: 3}
      propertyPath: m_LocalRotation.z
      value: -0
      objectReference: {fileID: 0}
    - target: {fileID: -4216859302048453862, guid: 81d416e6df60a409883e36e737111e88, type: 3}
      propertyPath: m_LocalEulerAnglesHint.x
      value: 0
      objectReference: {fileID: 0}
    - target: {fileID: -4216859302048453862, guid: 81d416e6df60a409883e36e737111e88, type: 3}
      propertyPath: m_LocalEulerAnglesHint.y
      value: 0
      objectReference: {fileID: 0}
    - target: {fileID: -4216859302048453862, guid: 81d416e6df60a409883e36e737111e88, type: 3}
      propertyPath: m_LocalEulerAnglesHint.z
      value: 0
      objectReference: {fileID: 0}
    - target: {fileID: -927199367670048503, guid: 81d416e6df60a409883e36e737111e88, type: 3}
      propertyPath: m_Name
      value: Cube_hardedge_01
      objectReference: {fileID: 0}
    m_RemovedComponents: []
  m_SourcePrefab: {fileID: 100100000, guid: 81d416e6df60a409883e36e737111e88, type: 3}
--- !u!1 &6030332796725836435 stripped
GameObject:
  m_CorrespondingSourceObject: {fileID: -927199367670048503, guid: 81d416e6df60a409883e36e737111e88, type: 3}
  m_PrefabInstance: {fileID: 2346910511208358810}
  m_PrefabAsset: {fileID: 0}
